src/Dump.vcd
$date
	Sat Apr 25 12:51:15 2026
$end
$version
	Icarus Verilog
$end
$timescale
	1s
$end
$scope module tb $end
$var reg 1 ! clk $end
$var reg 1 " rst $end
$scope module uut $end
$var wire 1 ! clk $end
$var wire 1 " rst $end
$var wire 32 # WriteDataM [31:0] $end
$var wire 5 $ Rs2_E [4:0] $end
$var wire 5 % Rs1_E [4:0] $end
$var wire 32 & ResultW [31:0] $end
$var wire 1 ' ResultSrcW $end
$var wire 1 ( ResultSrcM $end
$var wire 1 ) ResultSrcE $end
$var wire 1 * RegWriteW $end
$var wire 1 + RegWriteM $end
$var wire 1 , RegWriteE $end
$var wire 32 - ReadDataW [31:0] $end
$var wire 5 . RD_M [4:0] $end
$var wire 5 / RD_E [4:0] $end
$var wire 5 0 RDW [4:0] $end
$var wire 32 1 RD2_E [31:0] $end
$var wire 32 2 RD1_E [31:0] $end
$var wire 32 3 PCTargetE [31:0] $end
$var wire 1 4 PCSrcE $end
$var wire 32 5 PCPlus4W [31:0] $end
$var wire 32 6 PCPlus4M [31:0] $end
$var wire 32 7 PCPlus4E [31:0] $end
$var wire 32 8 PCPlus4D [31:0] $end
$var wire 32 9 PCE [31:0] $end
$var wire 32 : PCD [31:0] $end
$var wire 1 ; MemWriteM $end
$var wire 1 < MemWriteE $end
$var wire 32 = InstrD [31:0] $end
$var wire 32 > Imm_Ext_E [31:0] $end
$var wire 2 ? ForwardBE [1:0] $end
$var wire 2 @ ForwardAE [1:0] $end
$var wire 1 A BranchE $end
$var wire 1 B ALUSrcE $end
$var wire 32 C ALUResultW [31:0] $end
$var wire 32 D ALUResultM [31:0] $end
$var wire 3 E ALUControlE [2:0] $end
$scope module Forwarding_Block $end
$var wire 1 " rst $end
$var wire 5 F Rs2_E [4:0] $end
$var wire 5 G Rs1_E [4:0] $end
$var wire 1 * RegWriteW $end
$var wire 1 + RegWriteM $end
$var wire 5 H RD_W [4:0] $end
$var wire 5 I RD_M [4:0] $end
$var wire 2 J ForwardBE [1:0] $end
$var wire 2 K ForwardAE [1:0] $end
$upscope $end
$scope module decode $end
$var wire 3 L ALUControlE [2:0] $end
$var wire 1 B ALUSrcE $end
$var wire 1 A BranchE $end
$var wire 32 M Imm_Ext_E [31:0] $end
$var wire 1 < MemWriteE $end
$var wire 32 N PCE [31:0] $end
$var wire 32 O PCPlus4E [31:0] $end
$var wire 32 P RD1_E [31:0] $end
$var wire 32 Q RD2_E [31:0] $end
$var wire 5 R RD_E [4:0] $end
$var wire 1 , RegWriteE $end
$var wire 1 ) ResultSrcE $end
$var wire 5 S Rs1_E [4:0] $end
$var wire 5 T Rs2_E [4:0] $end
$var wire 1 ! clk $end
$var wire 1 " rst $end
$var wire 32 U ResultW [31:0] $end
$var wire 1 V ResultSrcD $end
$var wire 1 * RegWriteW $end
$var wire 1 W RegWriteD $end
$var wire 5 X RDW [4:0] $end
$var wire 32 Y RD2_D [31:0] $end
$var wire 32 Z RD1_D [31:0] $end
$var wire 1 4 PCSrcE $end
$var wire 32 [ PCPlus4D [31:0] $end
$var wire 32 \ PCD [31:0] $end
$var wire 1 ] MemWriteD $end
$var wire 32 ^ InstrD [31:0] $end
$var wire 32 _ Imm_Ext_D [31:0] $end
$var wire 2 ` ImmSrcD [1:0] $end
$var wire 1 a BranchD $end
$var wire 1 b ALUSrcD $end
$var wire 3 c ALUControlD [2:0] $end
$var reg 3 d ALUControlD_reg [2:0] $end
$var reg 1 B ALUSrcD_reg $end
$var reg 1 A BranchD_reg $end
$var reg 32 e Imm_Ext_D_reg [31:0] $end
$var reg 1 f MemWriteD_reg $end
$var reg 32 g PCD_reg [31:0] $end
$var reg 32 h PCPlus4D_reg [31:0] $end
$var reg 32 i RD1_D_reg [31:0] $end
$var reg 32 j RD2_D_reg [31:0] $end
$var reg 5 k RD_D_reg [4:0] $end
$var reg 5 l RS1_D_reg [4:0] $end
$var reg 5 m RS2_D_reg [4:0] $end
$var reg 1 n RegWriteD_reg $end
$var reg 1 o ResultSrcD_reg $end
$scope module Reg_file $end
$var wire 5 p A1 [4:0] $end
$var wire 5 q A2 [4:0] $end
$var wire 1 ! clk $end
$var wire 1 " rst $end
$var wire 1 * WE3 $end
$var wire 32 r WD3 [31:0] $end
$var wire 32 s RD2 [31:0] $end
$var wire 32 t RD1 [31:0] $end
$var wire 5 u A3 [4:0] $end
$var integer 32 v i [31:0] $end
$upscope $end
$scope module control $end
$var wire 7 w Op [6:0] $end
$var wire 3 x funct3 [2:0] $end
$var wire 7 y funct7 [6:0] $end
$var wire 1 V ResultSrc $end
$var wire 1 W RegWrite $end
$var wire 1 ] MemWrite $end
$var wire 2 z ImmSrc [1:0] $end
$var wire 1 a Branch $end
$var wire 1 b ALUSrc $end
$var wire 2 { ALUOp [1:0] $end
$var wire 3 | ALUControl [2:0] $end
$scope module ALU_Decoder $end
$var wire 3 } funct3 [2:0] $end
$var wire 7 ~ funct7 [6:0] $end
$var wire 7 !" op [6:0] $end
$var wire 2 "" ALUOp [1:0] $end
$var wire 3 #" ALUControl [2:0] $end
$upscope $end
$scope module Main_Decoder $end
$var wire 7 $" Op [6:0] $end
$var wire 1 V ResultSrc $end
$var wire 1 W RegWrite $end
$var wire 1 ] MemWrite $end
$var wire 2 %" ImmSrc [1:0] $end
$var wire 1 a Branch $end
$var wire 1 b ALUSrc $end
$var wire 2 &" ALUOp [1:0] $end
$upscope $end
$upscope $end
$scope module extension $end
$var wire 2 '" ImmSrc [1:0] $end
$var wire 25 (" In [31:7] $end
$var reg 32 )" Imm_Ext [31:0] $end
$upscope $end
$upscope $end
$scope module execute $end
$var wire 3 *" ALUControlE [2:0] $end
$var wire 32 +" ALUResultM_In [31:0] $end
$var wire 1 B ALUSrcE $end
$var wire 32 ," ALU_ResultM [31:0] $end
$var wire 1 A BranchE $end
$var wire 2 -" ForwardAE [1:0] $end
$var wire 2 ." ForwardBE [1:0] $end
$var wire 32 /" Imm_Ext_E [31:0] $end
$var wire 1 < MemWriteE $end
$var wire 1 ; MemWriteM $end
$var wire 32 0" PCE [31:0] $end
$var wire 32 1" PCPlus4E [31:0] $end
$var wire 32 2" PCPlus4M [31:0] $end
$var wire 1 4 PCSrcE $end
$var wire 32 3" RD1_E [31:0] $end
$var wire 32 4" RD2_E [31:0] $end
$var wire 5 5" RD_E [4:0] $end
$var wire 5 6" RD_M [4:0] $end
$var wire 1 , RegWriteE $end
$var wire 1 + RegWriteM $end
$var wire 1 ) ResultSrcE $end
$var wire 1 ( ResultSrcM $end
$var wire 32 7" WriteDataM [31:0] $end
$var wire 1 ! clk $end
$var wire 1 " rst $end
$var wire 1 8" ZeroE $end
$var wire 32 9" SrcBE_interim [31:0] $end
$var wire 32 :" SrcBE [31:0] $end
$var wire 32 ;" SrcAE [31:0] $end
$var wire 32 <" ResultW [31:0] $end
$var wire 32 =" PCTargetE [31:0] $end
$var wire 32 >" ALUResultE [31:0] $end
$var reg 32 ?" ALUResultE_reg [31:0] $end
$var reg 1 @" MemWriteE_reg $end
$var reg 32 A" PCPlus4E_reg [31:0] $end
$var reg 5 B" RD_E_reg [4:0] $end
$var reg 1 + RegWriteE_reg $end
$var reg 1 C" ResultSrcE_reg $end
$var reg 32 D" WriteDataE_reg [31:0] $end
$scope module alu $end
$var wire 3 E" ALUControl [2:0] $end
$var wire 1 F" Carry $end
$var wire 1 G" OverFlow $end
$var wire 1 8" Zero $end
$var wire 32 H" Sum [31:0] $end
$var wire 32 I" Result [31:0] $end
$var wire 1 J" Negative $end
$var wire 1 K" Cout $end
$var wire 32 L" B [31:0] $end
$var wire 32 M" A [31:0] $end
$upscope $end
$scope module alu_src_mux $end
$var wire 32 N" b [31:0] $end
$var wire 1 B s $end
$var wire 32 O" c [31:0] $end
$var wire 32 P" a [31:0] $end
$upscope $end
$scope module branch_adder $end
$var wire 32 Q" a [31:0] $end
$var wire 32 R" b [31:0] $end
$var wire 32 S" c [31:0] $end
$upscope $end
$scope module mux_forward_A $end
$var wire 32 T" a [31:0] $end
$var wire 32 U" c [31:0] $end
$var wire 2 V" s [1:0] $end
$var wire 32 W" d [31:0] $end
$var wire 32 X" b [31:0] $end
$upscope $end
$scope module mux_forward_B $end
$var wire 32 Y" a [31:0] $end
$var wire 32 Z" c [31:0] $end
$var wire 2 [" s [1:0] $end
$var wire 32 \" d [31:0] $end
$var wire 32 ]" b [31:0] $end
$upscope $end
$upscope $end
$scope module fetch $end
$var wire 1 4 PCSrcE $end
$var wire 32 ^" PCTargetE [31:0] $end
$var wire 1 ! clk $end
$var wire 1 " rst $end
$var wire 32 _" PC_F [31:0] $end
$var wire 32 `" PCPlus4F [31:0] $end
$var wire 32 a" PCPlus4D [31:0] $end
$var wire 32 b" PCF [31:0] $end
$var wire 32 c" PCD [31:0] $end
$var wire 32 d" InstrF [31:0] $end
$var wire 32 e" InstrD [31:0] $end
$var reg 32 f" InstrF_reg [31:0] $end
$var reg 32 g" PCF_reg [31:0] $end
$var reg 32 h" PCPlus4F_reg [31:0] $end
$scope module I_Memory $end
$var wire 1 " rst $end
$var wire 32 i" RD [31:0] $end
$var wire 32 j" A [31:0] $end
$upscope $end
$scope module PC_MUX $end
$var wire 32 k" b [31:0] $end
$var wire 1 4 s $end
$var wire 32 l" c [31:0] $end
$var wire 32 m" a [31:0] $end
$upscope $end
$scope module PC_adder $end
$var wire 32 n" b [31:0] $end
$var wire 32 o" c [31:0] $end
$var wire 32 p" a [31:0] $end
$upscope $end
$scope module Program_Counter $end
$var wire 32 q" PC_Next [31:0] $end
$var wire 1 ! clk $end
$var wire 1 " rst $end
$var reg 32 r" PC [31:0] $end
$upscope $end
$upscope $end
$scope module memory $end
$var wire 32 s" ALUResultM [31:0] $end
$var wire 32 t" ALUResultW [31:0] $end
$var wire 1 ; MemWriteM $end
$var wire 32 u" PCPlus4M [31:0] $end
$var wire 32 v" PCPlus4W [31:0] $end
$var wire 5 w" RD_M [4:0] $end
$var wire 5 x" RD_W [4:0] $end
$var wire 32 y" ReadDataW [31:0] $end
$var wire 1 + RegWriteM $end
$var wire 1 * RegWriteW $end
$var wire 1 ( ResultSrcM $end
$var wire 1 ' ResultSrcW $end
$var wire 32 z" WriteDataM [31:0] $end
$var wire 1 ! clk $end
$var wire 1 " rst $end
$var wire 32 {" ReadDataM [31:0] $end
$var reg 32 |" ALUResultM_reg [31:0] $end
$var reg 32 }" PCPlus4M_reg [31:0] $end
$var reg 5 ~" RD_M_reg [4:0] $end
$var reg 32 !# ReadDataM_reg [31:0] $end
$var reg 1 * RegWriteM_reg $end
$var reg 1 ' ResultSrcM_reg $end
$scope module data_memory $end
$var wire 32 "# A [31:0] $end
$var wire 32 ## WD [31:0] $end
$var wire 1 ; WE $end
$var wire 1 ! clk $end
$var wire 1 " rst $end
$var wire 32 $# RD [31:0] $end
$upscope $end
$upscope $end
$scope module write_back $end
$var wire 32 %# ALUResultW [31:0] $end
$var wire 32 &# PCPlus4W [31:0] $end
$var wire 32 '# ReadDataW [31:0] $end
$var wire 1 ' ResultSrcW $end
$var wire 1 ! clk $end
$var wire 1 " rst $end
$var wire 32 (# ResultW [31:0] $end
$scope module WB_mux $end
$var wire 32 )# a [31:0] $end
$var wire 32 *# b [31:0] $end
$var wire 1 ' s $end
$var wire 32 +# c [31:0] $end
$upscope $end
$upscope $end
$upscope $end
$upscope $end
$enddefinitions $end
#0
$dumpvars
b0 +#
b0 *#
b0 )#
b0 (#
b0 '#
b0 &#
b0 %#
b0 $#
b0 ##
b0 "#
b0 !#
b0 ~"
b0 }"
b0 |"
b0 {"
b0 z"
b0 y"
b0 x"
b0 w"
b0 v"
b0 u"
b0 t"
b0 s"
b0 r"
b100 q"
b0 p"
b100 o"
b100 n"
b100 m"
b100 l"
b0 k"
b0 j"
b0 i"
b0 h"
b0 g"
b0 f"
b0 e"
b0 d"
b0 c"
b0 b"
b0 a"
b100 `"
b100 _"
b0 ^"
b0 ]"
b0 \"
b0 ["
b0 Z"
b0 Y"
b0 X"
b0 W"
b0 V"
b0 U"
b0 T"
b0 S"
b0 R"
b0 Q"
b0 P"
b0 O"
b0 N"
b0 M"
b0 L"
0K"
0J"
b0 I"
b0 H"
0G"
0F"
b0 E"
b0 D"
0C"
b0 B"
b0 A"
0@"
b0 ?"
b0 >"
b0 ="
b0 <"
b0 ;"
b0 :"
b0 9"
18"
b0 7"
b0 6"
b0 5"
b0 4"
b0 3"
b0 2"
b0 1"
b0 0"
b0 /"
b0 ."
b0 -"
b0 ,"
b0 +"
b0 *"
b0 )"
b0 ("
b0 '"
b0 &"
b0 %"
b0 $"
b0 #"
b0 ""
b0 !"
b0 ~
b0 }
b0 |
b0 {
b0 z
b0 y
b0 x
b0 w
b100000 v
b0 u
b0 t
b0 s
b0 r
b0 q
b0 p
0o
0n
bx m
bx l
b0 k
b0 j
b0 i
b0 h
b0 g
0f
b0 e
b0 d
b0 c
0b
0a
b0 `
b0 _
b0 ^
0]
b0 \
b0 [
b0 Z
b0 Y
b0 X
0W
0V
b0 U
bx T
bx S
b0 R
b0 Q
b0 P
b0 O
b0 N
b0 M
b0 L
b0 K
b0 J
b0 I
b0 H
bx G
bx F
b0 E
b0 D
b0 C
0B
0A
b0 @
b0 ?
b0 >
b0 =
0<
0;
b0 :
b0 9
b0 8
b0 7
b0 6
b0 5
04
b0 3
b0 2
b0 1
b0 0
b0 /
b0 .
b0 -
0,
0+
0*
0)
0(
0'
b0 &
bx %
bx $
b0 #
0"
1!
$end
#50
0!
#100
1!
#150
0!
#200
b10100000000001010010011 d"
b10100000000001010010011 i"
b100000 {"
b100000 $#
1"
1!
#250
0!
#300
1W
1b
b10 {
b10 ""
b10 &"
b101 _
b101 )"
b1100000000001100010011 d"
b1100000000001100010011 i"
b1010000000000101 ("
b101 q
b10011 w
b10011 !"
b10011 $"
b1000 _"
b1000 l"
b1000 q"
b100 8
b100 [
b100 a"
b10100000000001010010011 =
b10100000000001010010011 ^
b10100000000001010010011 e"
b1000 `"
b1000 m"
b1000 o"
b100 b"
b100 j"
b100 p"
b100 r"
b100 h"
b10100000000001010010011 f"
b0 $
b0 F
b0 T
b0 m
b0 %
b0 G
b0 S
b0 l
b100000 -
b100000 y"
b100000 !#
b100000 '#
b100000 *#
1!
#350
0!
#400
08"
b101 >"
b101 I"
b101 H"
b11 _
b11 )"
b101 :"
b101 L"
b101 O"
b110000000000110 ("
b11 q
b11000101000001110110011 d"
b11000101000001110110011 i"
b1000 8
b1000 [
b1000 a"
b100 :
b100 \
b100 c"
b1100000000001100010011 =
b1100000000001100010011 ^
b1100000000001100010011 e"
b1100 _"
b1100 l"
b1100 q"
b101 $
b101 F
b101 T
b101 m
b100 7
b100 O
b100 1"
b100 h
b101 /
b101 R
b101 5"
b101 k
b101 3
b101 ="
b101 S"
b101 ^"
b101 k"
b101 >
b101 M
b101 e
b101 /"
b101 N"
b101 R"
1B
1,
1n
b1000 h"
b100 g"
b1100000000001100010011 f"
b1100 `"
b1100 m"
b1100 o"
b1000 b"
b1000 j"
b1000 p"
b1000 r"
1!
#450
0!
#500
1W
0b
b11 >"
b11 I"
b110 _
b110 )"
b11 H"
b10010000000011 d"
b10010000000011 i"
b1100010100000111 ("
b110 q
b101 p
b110011 w
b110011 !"
b110011 $"
bx {"
bx $#
b10000 _"
b10000 l"
b10000 q"
b1100 8
b1100 [
b1100 a"
b1000 :
b1000 \
b1000 c"
b11000101000001110110011 =
b11000101000001110110011 ^
b11000101000001110110011 e"
b11 :"
b11 L"
b11 O"
b10000 `"
b10000 m"
b10000 o"
b1100 b"
b1100 j"
b1100 p"
b1100 r"
b1100 h"
b1000 g"
b11000101000001110110011 f"
b11 $
b11 F
b11 T
b11 m
b1000 7
b1000 O
b1000 1"
b1000 h
b100 9
b100 N
b100 g
b100 0"
b100 Q"
b110 /
b110 R
b110 5"
b110 k
b111 3
b111 ="
b111 S"
b111 ^"
b111 k"
b11 >
b11 M
b11 e
b11 /"
b11 N"
b11 R"
b101 .
b101 I
b101 6"
b101 B"
b101 w"
b100 6
b100 2"
b100 u"
b100 A"
b101 D
b101 +"
b101 ,"
b101 ?"
b101 U"
b101 Z"
b101 s"
b101 "#
1+
1!
#550
0!
#600
b101 ;"
b101 M"
b101 W"
b11 9"
b11 P"
b11 \"
b1 @
b1 K
b1 -"
b1 V"
08"
1b
b1000 >"
b1000 I"
b0 {
b0 ""
b0 &"
b10 ?
b10 J
b10 ."
b10 ["
b1000 H"
b0 _
b0 )"
1V
b100000 {"
b100000 $#
b1001000 ("
b0 q
b0 p
b10 x
b10 }
b11 w
b11 !"
b11 $"
b100000000010010010011 d"
b100000000010010010011 i"
b101 &
b101 U
b101 r
b101 <"
b101 X"
b101 ]"
b101 (#
b101 +#
b11 :"
b11 L"
b11 O"
b10000 8
b10000 [
b10000 a"
b1100 :
b1100 \
b1100 c"
b10010000000011 =
b10010000000011 ^
b10010000000011 e"
b10100 _"
b10100 l"
b10100 q"
b101 0
b101 H
b101 X
b101 u
b101 x"
b101 ~"
b100 5
b100 v"
b100 &#
b100 }"
bx -
bx y"
bx !#
bx '#
bx *#
b101 C
b101 t"
b101 |"
b101 %#
b101 )#
1*
b110 .
b110 I
b110 6"
b110 B"
b110 w"
b1000 6
b1000 2"
b1000 u"
b1000 A"
b11 D
b11 +"
b11 ,"
b11 ?"
b11 U"
b11 Z"
b11 s"
b11 "#
b110 $
b110 F
b110 T
b110 m
b101 %
b101 G
b101 S
b101 l
b1100 7
b1100 O
b1100 1"
b1100 h
b1000 9
b1000 N
b1000 g
b1000 0"
b1000 Q"
b111 /
b111 R
b111 5"
b111 k
b1110 3
b1110 ="
b1110 S"
b1110 ^"
b1110 k"
b110 >
b110 M
b110 e
b110 /"
b110 N"
b110 R"
0B
b10000 h"
b1100 g"
b10010000000011 f"
b10100 `"
b10100 m"
b10100 o"
b10000 b"
b10000 j"
b10000 p"
b10000 r"
1!
#650
0!
#700
18"
b0 >"
b0 I"
b10 {
b10 ""
b10 &"
b0 H"
b0 @
b0 K
b0 -"
b0 V"
b1 _
b1 )"
0V
b0 ?
b0 J
b0 ."
b0 ["
b0 9"
b0 P"
b0 \"
b0 ;"
b0 M"
b0 W"
b100101000000010100110011 d"
b100101000000010100110011 i"
b10000000001001 ("
b1 q
b0 x
b0 }
b10011 w
b10011 !"
b10011 $"
b0 :"
b0 L"
b0 O"
bx {"
bx $#
b11000 _"
b11000 l"
b11000 q"
b10100 8
b10100 [
b10100 a"
b10000 :
b10000 \
b10000 c"
b100000000010010010011 =
b100000000010010010011 ^
b100000000010010010011 e"
b11 &
b11 U
b11 r
b11 <"
b11 X"
b11 ]"
b11 (#
b11 +#
b11000 `"
b11000 m"
b11000 o"
b10100 b"
b10100 j"
b10100 p"
b10100 r"
b10100 h"
b10000 g"
b100000000010010010011 f"
b0 $
b0 F
b0 T
b0 m
b0 %
b0 G
b0 S
b0 l
b10000 7
b10000 O
b10000 1"
b10000 h
b1100 9
b1100 N
b1100 g
b1100 0"
b1100 Q"
b1000 /
b1000 R
b1000 5"
b1000 k
b1100 3
b1100 ="
b1100 S"
b1100 ^"
b1100 k"
b0 >
b0 M
b0 e
b0 /"
b0 N"
b0 R"
1)
1o
1B
b111 .
b111 I
b111 6"
b111 B"
b111 w"
b11 #
b11 7"
b11 z"
b11 ##
b11 D"
b1100 6
b1100 2"
b1100 u"
b1100 A"
b1000 D
b1000 +"
b1000 ,"
b1000 ?"
b1000 U"
b1000 Z"
b1000 s"
b1000 "#
b110 0
b110 H
b110 X
b110 u
b110 x"
b110 ~"
b1000 5
b1000 v"
b1000 &#
b1000 }"
b100000 -
b100000 y"
b100000 !#
b100000 '#
b100000 *#
b11 C
b11 t"
b11 |"
b11 %#
b11 )#
1!
#750
0!
#800
08"
b1 >"
b1 I"
1W
0b
b1 H"
b1001 _
b1001 )"
b100000 {"
b100000 $#
b10010100000001010 ("
b1001 q
b1000 p
b110011 w
b110011 !"
b110011 $"
bx d"
bx i"
b1000 &
b1000 U
b1000 r
b1000 <"
b1000 X"
b1000 ]"
b1000 (#
b1000 +#
b1 :"
b1 L"
b1 O"
b11000 8
b11000 [
b11000 a"
b10100 :
b10100 \
b10100 c"
b100101000000010100110011 =
b100101000000010100110011 ^
b100101000000010100110011 e"
b11100 _"
b11100 l"
b11100 q"
b111 0
b111 H
b111 X
b111 u
b111 x"
b111 ~"
b1100 5
b1100 v"
b1100 &#
b1100 }"
bx -
bx y"
bx !#
bx '#
bx *#
b1000 C
b1000 t"
b1000 |"
b1000 %#
b1000 )#
b1000 .
b1000 I
b1000 6"
b1000 B"
b1000 w"
b0 #
b0 7"
b0 z"
b0 ##
b0 D"
b10000 6
b10000 2"
b10000 u"
b10000 A"
b0 D
b0 +"
b0 ,"
b0 ?"
b0 U"
b0 Z"
b0 s"
b0 "#
1(
1C"
b1 $
b1 F
b1 T
b1 m
b10100 7
b10100 O
b10100 1"
b10100 h
b10000 9
b10000 N
b10000 g
b10000 0"
b10000 Q"
b1001 /
b1001 R
b1001 5"
b1001 k
b10001 3
b10001 ="
b10001 S"
b10001 ^"
b10001 k"
b1 >
b1 M
b1 e
b1 /"
b1 N"
b1 R"
0)
0o
b11000 h"
b10100 g"
b100101000000010100110011 f"
b11100 `"
b11100 m"
b11100 o"
b11000 b"
b11000 j"
b11000 p"
b11000 r"
1!
#850
0!
#900
bx c
bx |
bx #"
b1 9"
b1 P"
b1 \"
xW
b100000 ;"
b100000 M"
b100000 W"
08"
bx Y
bx s
bx Z
bx t
xb
bx {
bx ""
bx &"
b1 @
b1 K
b1 -"
b1 V"
b100001 >"
b100001 I"
b0 _
b0 )"
bx `
bx z
bx %"
bx '"
x]
xV
xa
b10 ?
b10 J
b10 ."
b10 ["
b100001 H"
bx ("
bx q
bx p
bx y
bx ~
bx x
bx }
bx w
bx !"
bx $"
b100000 _"
b100000 l"
b100000 q"
b11100 8
b11100 [
b11100 a"
b11000 :
b11000 \
b11000 c"
bx =
bx ^
bx e"
b1 :"
b1 L"
b1 O"
b100000 &
b100000 U
b100000 r
b100000 <"
b100000 X"
b100000 ]"
b100000 (#
b100000 +#
b100000 `"
b100000 m"
b100000 o"
b11100 b"
b11100 j"
b11100 p"
b11100 r"
b11100 h"
b11000 g"
bx f"
b1001 $
b1001 F
b1001 T
b1001 m
b1000 %
b1000 G
b1000 S
b1000 l
b11000 7
b11000 O
b11000 1"
b11000 h
b10100 9
b10100 N
b10100 g
b10100 0"
b10100 Q"
b1010 /
b1010 R
b1010 5"
b1010 k
b11101 3
b11101 ="
b11101 S"
b11101 ^"
b11101 k"
b1001 >
b1001 M
b1001 e
b1001 /"
b1001 N"
b1001 R"
0B
b1001 .
b1001 I
b1001 6"
b1001 B"
b1001 w"
b10100 6
b10100 2"
b10100 u"
b10100 A"
b1 D
b1 +"
b1 ,"
b1 ?"
b1 U"
b1 Z"
b1 s"
b1 "#
0(
0C"
b1000 0
b1000 H
b1000 X
b1000 u
b1000 x"
b1000 ~"
b10000 5
b10000 v"
b10000 &#
b10000 }"
b100000 -
b100000 y"
b100000 !#
b100000 '#
b100000 *#
b0 C
b0 t"
b0 |"
b0 %#
b0 )#
1'
1!
#950
0!
#1000
xG"
xJ"
xF"
bx ;"
bx M"
bx W"
bx H"
xK"
bx 9"
bx P"
bx \"
bx ?
bx J
bx ."
bx ["
bx @
bx K
bx -"
bx V"
x4
b1 &
b1 U
b1 r
b1 <"
b1 X"
b1 ]"
b1 (#
b1 +#
bx {"
bx $#
x8"
bx :"
bx L"
bx O"
bx >"
bx I"
b100000 8
b100000 [
b100000 a"
b11100 :
b11100 \
b11100 c"
b0xxxx00 _"
b0xxxx00 l"
b0xxxx00 q"
b1001 0
b1001 H
b1001 X
b1001 u
b1001 x"
b1001 ~"
b10100 5
b10100 v"
b10100 &#
b10100 }"
b1 C
b1 t"
b1 |"
b1 %#
b1 )#
0'
b1010 .
b1010 I
b1010 6"
b1010 B"
b1010 w"
b1 #
b1 7"
b1 z"
b1 ##
b1 D"
b11000 6
b11000 2"
b11000 u"
b11000 A"
b100001 D
b100001 +"
b100001 ,"
b100001 ?"
b100001 U"
b100001 Z"
b100001 s"
b100001 "#
bx $
bx F
bx T
bx m
bx %
bx G
bx S
bx l
b11100 7
b11100 O
b11100 1"
b11100 h
b11000 9
b11000 N
b11000 g
b11000 0"
b11000 Q"
bx /
bx R
bx 5"
bx k
b11000 3
b11000 ="
b11000 S"
b11000 ^"
b11000 k"
b0 >
b0 M
b0 e
b0 /"
b0 N"
b0 R"
bx 1
bx Q
bx j
bx 4"
bx Y"
bx 2
bx P
bx i
bx 3"
bx T"
bx E
bx L
bx d
bx *"
bx E"
xA
x)
xo
x<
xf
xB
x,
xn
b100000 h"
b11100 g"
b100100 `"
b100100 m"
b100100 o"
b100000 b"
b100000 j"
b100000 p"
b100000 r"
1!
#1050
0!
#1100
b100100 8
b100100 [
b100100 a"
b100000 :
b100000 \
b100000 c"
bx _"
bx l"
bx q"
b100001 &
b100001 U
b100001 r
b100001 <"
b100001 X"
b100001 ]"
b100001 (#
b100001 +#
bx `"
bx m"
bx o"
b0xxxx00 b"
b0xxxx00 j"
b0xxxx00 p"
b0xxxx00 r"
b100100 h"
b100000 g"
b100000 7
b100000 O
b100000 1"
b100000 h
b11100 3
b11100 ="
b11100 S"
b11100 ^"
b11100 k"
b11100 9
b11100 N
b11100 g
b11100 0"
b11100 Q"
bx .
bx I
bx 6"
bx B"
bx w"
bx #
bx 7"
bx z"
bx ##
bx D"
b11100 6
b11100 2"
b11100 u"
b11100 A"
bx D
bx +"
bx ,"
bx ?"
bx U"
bx Z"
bx s"
bx "#
x;
x@"
x(
xC"
x+
b1010 0
b1010 H
b1010 X
b1010 u
b1010 x"
b1010 ~"
b11000 5
b11000 v"
b11000 &#
b11000 }"
bx -
bx y"
bx !#
bx '#
bx *#
b100001 C
b100001 t"
b100001 |"
b100001 %#
b100001 )#
1!
#1150
0!
#1200
bx &
bx U
bx r
bx <"
bx X"
bx ]"
bx (#
bx +#
bx 8
bx [
bx a"
b0xxxx00 :
b0xxxx00 \
b0xxxx00 c"
bx 0
bx H
bx X
bx u
bx x"
bx ~"
b11100 5
b11100 v"
b11100 &#
b11100 }"
bx C
bx t"
bx |"
bx %#
bx )#
x'
x*
b100000 6
b100000 2"
b100000 u"
b100000 A"
b100100 7
b100100 O
b100100 1"
b100100 h
b100000 3
b100000 ="
b100000 S"
b100000 ^"
b100000 k"
b100000 9
b100000 N
b100000 g
b100000 0"
b100000 Q"
bx h"
b0xxxx00 g"
bx b"
bx j"
bx p"
bx r"
1!
