src/Pipeline_dump.vcd
$date
	Sun May 10 16:07:01 2026
$end
$version
	Icarus Verilog
$end
$timescale
	1ps
$end
$scope module Pipeline_Top_tb $end
$var reg 1 ! clk $end
$var reg 1 " rst $end
$var integer 32 # fail_count [31:0] $end
$var integer 32 $ pass_count [31:0] $end
$scope module dut $end
$var wire 1 % FlushE $end
$var wire 1 ! clk $end
$var wire 1 " rst $end
$var wire 32 & WriteDataM [31:0] $end
$var wire 1 ' StallF $end
$var wire 1 ( StallD $end
$var wire 5 ) Rs2_E [4:0] $end
$var wire 5 * Rs2_D [4:0] $end
$var wire 5 + Rs1_E [4:0] $end
$var wire 5 , Rs1_D [4:0] $end
$var wire 32 - ResultW [31:0] $end
$var wire 2 . ResultSrcW [1:0] $end
$var wire 2 / ResultSrcM [1:0] $end
$var wire 2 0 ResultSrcE [1:0] $end
$var wire 1 1 RegWriteW $end
$var wire 1 2 RegWriteM $end
$var wire 1 3 RegWriteE $end
$var wire 32 4 ReadDataW [31:0] $end
$var wire 5 5 RD_M [4:0] $end
$var wire 5 6 RD_E [4:0] $end
$var wire 5 7 RDW [4:0] $end
$var wire 32 8 RD2_E [31:0] $end
$var wire 32 9 RD1_E [31:0] $end
$var wire 32 : PCTargetE [31:0] $end
$var wire 1 ; PCSrcE $end
$var wire 32 < PCPlus4W [31:0] $end
$var wire 32 = PCPlus4M [31:0] $end
$var wire 32 > PCPlus4E [31:0] $end
$var wire 32 ? PCPlus4D [31:0] $end
$var wire 32 @ PCE [31:0] $end
$var wire 32 A PCD [31:0] $end
$var wire 1 B MemWriteM $end
$var wire 1 C MemWriteE $end
$var wire 1 D JumpE $end
$var wire 32 E InstrD [31:0] $end
$var wire 32 F Imm_Ext_E [31:0] $end
$var wire 3 G Funct3M [2:0] $end
$var wire 3 H Funct3E [2:0] $end
$var wire 2 I ForwardBE [1:0] $end
$var wire 2 J ForwardAE [1:0] $end
$var wire 1 K FlushD $end
$var wire 1 L BranchE $end
$var wire 1 M ALUSrcE $end
$var wire 2 N ALUSrcAE [1:0] $end
$var wire 32 O ALUResultW [31:0] $end
$var wire 32 P ALUResultM [31:0] $end
$var wire 4 Q ALUControlE [3:0] $end
$scope module decode $end
$var wire 4 R ALUControlE [3:0] $end
$var wire 2 S ALUSrcAE [1:0] $end
$var wire 1 M ALUSrcE $end
$var wire 1 L BranchE $end
$var wire 3 T Funct3E [2:0] $end
$var wire 32 U Imm_Ext_E [31:0] $end
$var wire 1 D JumpE $end
$var wire 1 C MemWriteE $end
$var wire 32 V PCE [31:0] $end
$var wire 32 W PCPlus4E [31:0] $end
$var wire 32 X RD1_E [31:0] $end
$var wire 32 Y RD2_E [31:0] $end
$var wire 5 Z RD_E [4:0] $end
$var wire 1 3 RegWriteE $end
$var wire 2 [ ResultSrcE [1:0] $end
$var wire 5 \ Rs1_E [4:0] $end
$var wire 5 ] Rs2_E [4:0] $end
$var wire 1 ! clk $end
$var wire 1 " rst $end
$var wire 1 ( StallD $end
$var wire 5 ^ Rs2_D [4:0] $end
$var wire 5 _ Rs1_D [4:0] $end
$var wire 32 ` ResultW [31:0] $end
$var wire 2 a ResultSrcD [1:0] $end
$var wire 1 1 RegWriteW $end
$var wire 1 b RegWriteD $end
$var wire 5 c RDW [4:0] $end
$var wire 32 d RD2_D [31:0] $end
$var wire 32 e RD1_D [31:0] $end
$var wire 1 ; PCSrcE $end
$var wire 32 f PCPlus4D [31:0] $end
$var wire 32 g PCD [31:0] $end
$var wire 1 h MemWriteD $end
$var wire 1 i JumpD $end
$var wire 32 j InstrD [31:0] $end
$var wire 32 k Imm_Ext_D [31:0] $end
$var wire 3 l ImmSrcD [2:0] $end
$var wire 1 K FlushD $end
$var wire 1 m BranchD $end
$var wire 1 n ALUSrcD $end
$var wire 2 o ALUSrcAD [1:0] $end
$var wire 4 p ALUControlD [3:0] $end
$var reg 4 q ALUControlD_reg [3:0] $end
$var reg 2 r ALUSrcAD_reg [1:0] $end
$var reg 1 M ALUSrcD_reg $end
$var reg 1 L BranchD_reg $end
$var reg 3 s Funct3D_reg [2:0] $end
$var reg 32 t Imm_Ext_D_reg [31:0] $end
$var reg 1 D JumpD_reg $end
$var reg 1 u MemWriteD_reg $end
$var reg 32 v PCD_reg [31:0] $end
$var reg 32 w PCPlus4D_reg [31:0] $end
$var reg 32 x RD1_D_reg [31:0] $end
$var reg 32 y RD2_D_reg [31:0] $end
$var reg 5 z RD_D_reg [4:0] $end
$var reg 5 { RS1_D_reg [4:0] $end
$var reg 5 | RS2_D_reg [4:0] $end
$var reg 1 } RegWriteD_reg $end
$var reg 2 ~ ResultSrcD_reg [1:0] $end
$scope module Reg_file $end
$var wire 5 !" A1 [4:0] $end
$var wire 5 "" A2 [4:0] $end
$var wire 1 ! clk $end
$var wire 1 " rst $end
$var wire 1 1 WE3 $end
$var wire 32 #" WD3 [31:0] $end
$var wire 32 $" RD2 [31:0] $end
$var wire 32 %" RD1 [31:0] $end
$var wire 5 &" A3 [4:0] $end
$var integer 32 '" i [31:0] $end
$upscope $end
$scope module control $end
$var wire 7 (" Op [6:0] $end
$var wire 3 )" funct3 [2:0] $end
$var wire 7 *" funct7 [6:0] $end
$var wire 2 +" ResultSrc [1:0] $end
$var wire 1 b RegWrite $end
$var wire 1 h MemWrite $end
$var wire 1 i Jump $end
$var wire 3 ," ImmSrc [2:0] $end
$var wire 1 m Branch $end
$var wire 2 -" ALUSrcA [1:0] $end
$var wire 1 n ALUSrc $end
$var wire 2 ." ALUOp [1:0] $end
$var wire 4 /" ALUControl [3:0] $end
$scope module ALU_Decoder $end
$var wire 4 0" ALUControl [3:0] $end
$var wire 3 1" funct3 [2:0] $end
$var wire 7 2" funct7 [6:0] $end
$var wire 7 3" op [6:0] $end
$var wire 2 4" ALUOp [1:0] $end
$var reg 4 5" ALUControl_reg [3:0] $end
$upscope $end
$scope module Main_Decoder $end
$var wire 7 6" Op [6:0] $end
$var wire 2 7" ResultSrc [1:0] $end
$var wire 1 b RegWrite $end
$var wire 1 h MemWrite $end
$var wire 1 i Jump $end
$var wire 3 8" ImmSrc [2:0] $end
$var wire 1 m Branch $end
$var wire 2 9" ALUSrcA [1:0] $end
$var wire 1 n ALUSrc $end
$var wire 2 :" ALUOp [1:0] $end
$upscope $end
$upscope $end
$scope module extension $end
$var wire 3 ;" ImmSrc [2:0] $end
$var wire 25 <" In [31:7] $end
$var reg 32 =" Imm_Ext [31:0] $end
$upscope $end
$upscope $end
$scope module execute $end
$var wire 4 >" ALUControlE [3:0] $end
$var wire 32 ?" ALUResultM_In [31:0] $end
$var wire 2 @" ALUSrcAE [1:0] $end
$var wire 1 M ALUSrcE $end
$var wire 32 A" ALU_ResultM [31:0] $end
$var wire 1 L BranchE $end
$var wire 1 % FlushE $end
$var wire 3 B" Funct3E [2:0] $end
$var wire 3 C" Funct3M [2:0] $end
$var wire 32 D" Imm_Ext_E [31:0] $end
$var wire 1 E" IsJALR $end
$var wire 1 D JumpE $end
$var wire 1 C MemWriteE $end
$var wire 1 B MemWriteM $end
$var wire 32 F" PCE [31:0] $end
$var wire 32 G" PCPlus4E [31:0] $end
$var wire 32 H" PCPlus4M [31:0] $end
$var wire 1 ; PCSrcE $end
$var wire 32 I" RD1_E [31:0] $end
$var wire 32 J" RD2_E [31:0] $end
$var wire 5 K" RD_E [4:0] $end
$var wire 5 L" RD_M [4:0] $end
$var wire 1 3 RegWriteE $end
$var wire 1 2 RegWriteM $end
$var wire 2 M" ResultSrcE [1:0] $end
$var wire 2 N" ResultSrcM [1:0] $end
$var wire 32 O" WriteDataM [31:0] $end
$var wire 1 ! clk $end
$var wire 1 " rst $end
$var wire 32 P" SrcBE_fwd [31:0] $end
$var wire 32 Q" SrcBE [31:0] $end
$var wire 32 R" SrcAE_fwd [31:0] $end
$var wire 32 S" SrcAE [31:0] $end
$var wire 32 T" ResultW [31:0] $end
$var wire 32 U" PCTargetE [31:0] $end
$var wire 2 V" ForwardBE [1:0] $end
$var wire 2 W" ForwardAE [1:0] $end
$var wire 32 X" BranchTarget [31:0] $end
$var wire 1 Y" BranchTaken $end
$var wire 32 Z" ALUResultE [31:0] $end
$var reg 32 [" ALUResultE_reg [31:0] $end
$var reg 3 \" Funct3E_reg [2:0] $end
$var reg 1 ]" MemWriteE_reg $end
$var reg 32 ^" PCPlus4E_reg [31:0] $end
$var reg 5 _" RD_E_reg [4:0] $end
$var reg 1 2 RegWriteE_reg $end
$var reg 2 `" ResultSrcE_reg [1:0] $end
$var reg 32 a" WriteDataE_reg [31:0] $end
$scope module alu $end
$var wire 4 b" ALUControl [3:0] $end
$var wire 1 c" Carry $end
$var wire 1 d" OverFlow $end
$var wire 32 e" sra_result [31:0] $end
$var wire 5 f" shamt [4:0] $end
$var wire 1 g" Zero $end
$var wire 32 h" Sum [31:0] $end
$var wire 32 i" SLT_result [31:0] $end
$var wire 32 j" SLTU_result [31:0] $end
$var wire 32 k" Result [31:0] $end
$var wire 1 l" Negative $end
$var wire 1 m" Cout $end
$var wire 32 n" B [31:0] $end
$var wire 32 o" A [31:0] $end
$upscope $end
$scope module alu_src_B_mux $end
$var wire 32 p" b [31:0] $end
$var wire 1 M s $end
$var wire 32 q" c [31:0] $end
$var wire 32 r" a [31:0] $end
$upscope $end
$scope module br_cmp $end
$var wire 1 L BranchE $end
$var wire 1 Y" BranchTaken $end
$var wire 3 s" funct3 [2:0] $end
$var wire 32 t" signed_A [31:0] $end
$var wire 32 u" signed_B [31:0] $end
$var wire 32 v" SrcB [31:0] $end
$var wire 32 w" SrcA [31:0] $end
$var reg 1 x" result $end
$upscope $end
$scope module branch_adder $end
$var wire 32 y" a [31:0] $end
$var wire 32 z" b [31:0] $end
$var wire 32 {" c [31:0] $end
$upscope $end
$scope module mux_alu_src_A $end
$var wire 32 |" b [31:0] $end
$var wire 32 }" c [31:0] $end
$var wire 2 ~" s [1:0] $end
$var wire 32 !# d [31:0] $end
$var wire 32 "# a [31:0] $end
$upscope $end
$scope module mux_forward_A $end
$var wire 32 ## a [31:0] $end
$var wire 32 $# c [31:0] $end
$var wire 2 %# s [1:0] $end
$var wire 32 &# d [31:0] $end
$var wire 32 '# b [31:0] $end
$upscope $end
$scope module mux_forward_B $end
$var wire 32 (# a [31:0] $end
$var wire 32 )# c [31:0] $end
$var wire 2 *# s [1:0] $end
$var wire 32 +# d [31:0] $end
$var wire 32 ,# b [31:0] $end
$upscope $end
$upscope $end
$scope module fetch $end
$var wire 1 ; PCSrcE $end
$var wire 32 -# PCTargetE [31:0] $end
$var wire 1 ! clk $end
$var wire 1 " rst $end
$var wire 1 ' StallF $end
$var wire 1 ( StallD $end
$var wire 32 .# PC_F [31:0] $end
$var wire 32 /# PCPlus4F [31:0] $end
$var wire 32 0# PCPlus4D [31:0] $end
$var wire 32 1# PCF [31:0] $end
$var wire 32 2# PCD [31:0] $end
$var wire 32 3# InstrF [31:0] $end
$var wire 32 4# InstrD [31:0] $end
$var reg 32 5# InstrF_reg [31:0] $end
$var reg 32 6# PCF_reg [31:0] $end
$var reg 32 7# PCPlus4F_reg [31:0] $end
$scope module I_Memory $end
$var wire 1 " rst $end
$var wire 32 8# RD [31:0] $end
$var wire 32 9# A [31:0] $end
$upscope $end
$scope module PC_MUX $end
$var wire 32 :# b [31:0] $end
$var wire 1 ; s $end
$var wire 32 ;# c [31:0] $end
$var wire 32 <# a [31:0] $end
$upscope $end
$scope module PC_adder $end
$var wire 32 =# b [31:0] $end
$var wire 32 ># c [31:0] $end
$var wire 32 ?# a [31:0] $end
$upscope $end
$scope module Program_Counter $end
$var wire 32 @# PC_Next [31:0] $end
$var wire 1 ! clk $end
$var wire 1 " rst $end
$var wire 1 ' StallF $end
$var reg 32 A# PC [31:0] $end
$upscope $end
$upscope $end
$scope module hazard $end
$var wire 1 K FlushD $end
$var wire 1 % FlushE $end
$var wire 1 ; PCSrcE $end
$var wire 5 B# RD_E [4:0] $end
$var wire 5 C# RD_M [4:0] $end
$var wire 1 2 RegWriteM $end
$var wire 2 D# ResultSrcE [1:0] $end
$var wire 5 E# Rs1_D [4:0] $end
$var wire 5 F# Rs1_E [4:0] $end
$var wire 5 G# Rs2_D [4:0] $end
$var wire 5 H# Rs2_E [4:0] $end
$var wire 1 ( StallD $end
$var wire 1 ' StallF $end
$var wire 1 I# lwStall $end
$var wire 1 " rst $end
$var wire 1 1 RegWriteW $end
$var wire 5 J# RD_W [4:0] $end
$var wire 2 K# ForwardBE [1:0] $end
$var wire 2 L# ForwardAE [1:0] $end
$upscope $end
$scope module memory $end
$var wire 32 M# ALUResultM [31:0] $end
$var wire 32 N# ALUResultW [31:0] $end
$var wire 3 O# Funct3M [2:0] $end
$var wire 1 B MemWriteM $end
$var wire 32 P# PCPlus4M [31:0] $end
$var wire 32 Q# PCPlus4W [31:0] $end
$var wire 5 R# RD_M [4:0] $end
$var wire 5 S# RD_W [4:0] $end
$var wire 32 T# ReadDataW [31:0] $end
$var wire 1 2 RegWriteM $end
$var wire 1 1 RegWriteW $end
$var wire 2 U# ResultSrcM [1:0] $end
$var wire 2 V# ResultSrcW [1:0] $end
$var wire 32 W# WriteDataM [31:0] $end
$var wire 1 ! clk $end
$var wire 1 " rst $end
$var wire 32 X# ReadDataM [31:0] $end
$var reg 32 Y# ALUResultM_reg [31:0] $end
$var reg 32 Z# PCPlus4M_reg [31:0] $end
$var reg 5 [# RD_M_reg [4:0] $end
$var reg 32 \# ReadDataM_reg [31:0] $end
$var reg 1 1 RegWriteM_reg $end
$var reg 2 ]# ResultSrcM_reg [1:0] $end
$scope module data_memory $end
$var wire 32 ^# A [31:0] $end
$var wire 32 _# WD [31:0] $end
$var wire 1 B WE $end
$var wire 8 `# byte_data [7:0] $end
$var wire 1 ! clk $end
$var wire 3 a# funct3 [2:0] $end
$var wire 1 " rst $end
$var wire 32 b# word_data [31:0] $end
$var wire 16 c# half_data [15:0] $end
$var wire 12 d# byte_addr [11:0] $end
$var wire 32 e# RD [31:0] $end
$var integer 32 f# i [31:0] $end
$upscope $end
$upscope $end
$scope module write_back $end
$var wire 32 g# ALUResultW [31:0] $end
$var wire 32 h# PCPlus4W [31:0] $end
$var wire 32 i# ReadDataW [31:0] $end
$var wire 2 j# ResultSrcW [1:0] $end
$var wire 1 ! clk $end
$var wire 1 " rst $end
$var wire 32 k# ResultW [31:0] $end
$scope module WB_mux $end
$var wire 32 l# a [31:0] $end
$var wire 32 m# b [31:0] $end
$var wire 32 n# c [31:0] $end
$var wire 2 o# s [1:0] $end
$var wire 32 p# d [31:0] $end
$upscope $end
$upscope $end
$upscope $end
$upscope $end
$enddefinitions $end
#0
$dumpvars
b0 p#
b0 o#
b0 n#
b0 m#
b0 l#
b0 k#
b0 j#
b0 i#
b0 h#
b0 g#
b1000000000000 f#
b0 e#
b0 d#
b0 c#
b0 b#
b0 a#
b0 `#
b0 _#
b0 ^#
b0 ]#
b0 \#
b0 [#
b0 Z#
b0 Y#
b0 X#
b0 W#
b0 V#
b0 U#
b0 T#
b0 S#
b0 R#
b0 Q#
b0 P#
b0 O#
b0 N#
b0 M#
b0 L#
b0 K#
b0 J#
0I#
b0 H#
b0 G#
b0 F#
b0 E#
b0 D#
b0 C#
b0 B#
b0 A#
b100 @#
b0 ?#
b100 >#
b100 =#
b100 <#
b100 ;#
b0 :#
b0 9#
b0 8#
b0 7#
b0 6#
b10011 5#
b10011 4#
b0 3#
b0 2#
b0 1#
b0 0#
b100 /#
b100 .#
b0 -#
b0 ,#
b0 +#
b0 *#
b0 )#
b0 (#
b0 '#
b0 &#
b0 %#
b0 $#
b0 ##
b0 "#
b0 !#
b0 ~"
b0 }"
b0 |"
b0 {"
b0 z"
b0 y"
1x"
b0 w"
b0 v"
b0 u"
b0 t"
b0 s"
b0 r"
b0 q"
b0 p"
b0 o"
b0 n"
0m"
0l"
b0 k"
b1 j"
b0 i"
b0 h"
1g"
b0 f"
b0 e"
0d"
0c"
b0 b"
b0 a"
b0 `"
b0 _"
b0 ^"
0]"
b0 \"
b0 ["
b0 Z"
0Y"
b0 X"
b0 W"
b0 V"
b0 U"
b0 T"
b0 S"
b0 R"
b0 Q"
b0 P"
b0 O"
b0 N"
b0 M"
b0 L"
b0 K"
b0 J"
b0 I"
b0 H"
b0 G"
b0 F"
0E"
b0 D"
b0 C"
b0 B"
b0 A"
b0 @"
b0 ?"
b0 >"
b0 ="
b0 <"
b0 ;"
b10 :"
b0 9"
b0 8"
b0 7"
b10011 6"
b0 5"
b10 4"
b10011 3"
b0 2"
b0 1"
b0 0"
b0 /"
b10 ."
b0 -"
b0 ,"
b0 +"
b0 *"
b0 )"
b10011 ("
b100000 '"
b0 &"
b0 %"
b0 $"
b0 #"
b0 ""
b0 !"
b0 ~
0}
b0 |
b0 {
b0 z
b0 y
b0 x
b0 w
b0 v
0u
b0 t
b0 s
b0 r
b0 q
b0 p
b0 o
1n
0m
b0 l
b0 k
b10011 j
0i
0h
b0 g
b0 f
b0 e
b0 d
b0 c
1b
b0 a
b0 `
b0 _
b0 ^
b0 ]
b0 \
b0 [
b0 Z
b0 Y
b0 X
b0 W
b0 V
b0 U
b0 T
b0 S
b0 R
b0 Q
b0 P
b0 O
b0 N
0M
0L
0K
b0 J
b0 I
b0 H
b0 G
b0 F
b10011 E
0D
0C
0B
b0 A
b0 @
b0 ?
b0 >
b0 =
b0 <
0;
b0 :
b0 9
b0 8
b0 7
b0 6
b0 5
b0 4
03
02
01
b0 0
b0 /
b0 .
b0 -
b0 ,
b0 +
b0 *
b0 )
0(
0'
b0 &
0%
b0 $
b0 #
0"
0!
$end
#5000
1!
#10000
0!
#15000
1!
#20000
0!
#22000
b10100000000000010010011 3#
b10100000000000010010011 8#
1"
#25000
b101 k
b101 ="
b101 *
b101 ^
b101 G#
b1010000000000001 <"
b101 ""
b1100000000000100010011 3#
b1100000000000100010011 8#
b100 ?
b100 f
b100 0#
b10100000000000010010011 E
b10100000000000010010011 j
b10100000000000010010011 4#
b1000 .#
b1000 ;#
b1000 @#
1M
13
1}
b100 7#
b10100000000000010010011 5#
b1000 /#
b1000 <#
b1000 >#
b100 1#
b100 9#
b100 ?#
b100 A#
1!
#30000
0!
#35000
0g"
b101 Z"
b101 k"
b11 k
b11 ="
b101 h"
b1000001000000110110011 3#
b1000001000000110110011 8#
b11 *
b11 ^
b11 G#
b110000000000010 <"
b11 ""
b101 f"
b1100 .#
b1100 ;#
b1100 @#
b1000 ?
b1000 f
b1000 0#
b100 A
b100 g
b100 2#
b1100000000000100010011 E
b1100000000000100010011 j
b1100000000000100010011 4#
b101 Q"
b101 n"
b101 q"
b101 :
b101 U"
b101 -#
b101 :#
b1100 /#
b1100 <#
b1100 >#
b1000 1#
b1000 9#
b1000 ?#
b1000 A#
b1000 7#
b100 6#
b1100000000000100010011 5#
b101 )
b101 ]
b101 |
b101 H#
b100 >
b100 W
b100 G"
b100 w
b1 6
b1 Z
b1 z
b1 K"
b1 B#
b101 X"
b101 {"
b101 F
b101 U
b101 t
b101 D"
b101 p"
b101 z"
12
1!
#40000
0!
#45000
0n
b11 Z"
b11 k"
b11 h"
b10 k
b10 ="
b11 f"
b10 *
b10 ^
b10 G#
b1 ,
b1 _
b1 E#
b100000100000011 <"
b10 ""
b1 !"
b110011 ("
b110011 3"
b110011 6"
b1000000001000001000001000110011 3#
b1000000001000001000001000110011 8#
b101 d#
b11 Q"
b11 n"
b11 q"
b111 :
b111 U"
b111 -#
b111 :#
b1100 ?
b1100 f
b1100 0#
b1000 A
b1000 g
b1000 2#
b1000001000000110110011 E
b1000001000000110110011 j
b1000001000000110110011 4#
b10000 .#
b10000 ;#
b10000 @#
11
b1 5
b1 L"
b1 _"
b1 C#
b1 R#
b100 =
b100 H"
b100 P#
b100 ^"
b101 P
b101 ?"
b101 A"
b101 ["
b101 $#
b101 )#
b101 M#
b101 ^#
b11 )
b11 ]
b11 |
b11 H#
b1000 >
b1000 W
b1000 G"
b1000 w
b100 @
b100 V
b100 v
b100 F"
b100 y"
b100 }"
b10 6
b10 Z
b10 z
b10 K"
b10 B#
b111 X"
b111 {"
b11 F
b11 U
b11 t
b11 D"
b11 p"
b11 z"
b1100 7#
b1000 6#
b1000001000000110110011 5#
b10000 /#
b10000 <#
b10000 >#
b1100 1#
b1100 9#
b1100 ?#
b1100 A#
1!
#50000
0!
#55000
b0 e"
b101 S"
b101 o"
b101 !#
0x"
b11 u"
b11 P"
b11 r"
b11 v"
b11 +#
b101 t"
b101 R"
b101 w"
b101 "#
b101 &#
0g"
b1000 Z"
b1000 k"
b1 J
b1 W"
b1 %#
b1 L#
b10000000010 k
b10000000010 ="
b1 p
b1 /"
b1 0"
b1 5"
b10 I
b10 V"
b10 *#
b10 K#
b1000 h"
b1000001111001010110011 3#
b1000001111001010110011 8#
b100000000100000100000100 <"
b100000 *"
b100000 2"
b11 f"
b10100 .#
b10100 ;#
b10100 @#
b10000 ?
b10000 f
b10000 0#
b1100 A
b1100 g
b1100 2#
b1000000001000001000001000110011 E
b1000000001000001000001000110011 j
b1000000001000001000001000110011 4#
b11 Q"
b11 n"
b11 q"
b1010 :
b1010 U"
b1010 -#
b1010 :#
b11 d#
b101 -
b101 `
b101 #"
b101 T"
b101 '#
b101 ,#
b101 k#
b101 p#
b10100 /#
b10100 <#
b10100 >#
b10000 1#
b10000 9#
b10000 ?#
b10000 A#
b10000 7#
b1100 6#
b1000000001000001000001000110011 5#
b10 )
b10 ]
b10 |
b10 H#
b1 +
b1 \
b1 {
b1 F#
b1100 >
b1100 W
b1100 G"
b1100 w
b1000 @
b1000 V
b1000 v
b1000 F"
b1000 y"
b1000 }"
b11 6
b11 Z
b11 z
b11 K"
b11 B#
b1010 X"
b1010 {"
b10 F
b10 U
b10 t
b10 D"
b10 p"
b10 z"
0M
b10 5
b10 L"
b10 _"
b10 C#
b10 R#
b1000 =
b1000 H"
b1000 P#
b1000 ^"
b11 P
b11 ?"
b11 A"
b11 ["
b11 $#
b11 )#
b11 M#
b11 ^#
b1 7
b1 c
b1 &"
b1 J#
b1 S#
b1 [#
b100 <
b100 Q#
b100 Z#
b100 h#
b100 n#
b101 O
b101 N#
b101 Y#
b101 g#
b101 l#
1!
#60000
b101 e
b101 %"
0!
#65000
0l"
b0 i"
b1 j"
0m"
b0 e"
b10 Z"
b10 k"
b11 f"
b0 J
b0 W"
b0 %#
b0 L#
b101 S"
b101 o"
b101 !#
b11 Q"
b11 n"
b11 q"
b10 h"
1c"
b101 t"
b101 R"
b101 w"
b101 "#
b101 &#
b1 I
b1 V"
b1 *#
b1 K#
b11 u"
b11 P"
b11 r"
b11 v"
b11 +#
b10 k
b10 ="
b10 p
b10 /"
b10 0"
b10 5"
b100000111100101 <"
b0 *"
b0 2"
b111 )"
b111 1"
b1000001110001100110011 3#
b1000001110001100110011 8#
b11 -
b11 `
b11 #"
b11 T"
b11 '#
b11 ,#
b11 k#
b11 p#
b1000 d#
b10000001110 :
b10000001110 U"
b10000001110 -#
b10000001110 :#
b10100 ?
b10100 f
b10100 0#
b10000 A
b10000 g
b10000 2#
b1000001111001010110011 E
b1000001111001010110011 j
b1000001111001010110011 4#
b11000 .#
b11000 ;#
b11000 @#
b10 7
b10 c
b10 &"
b10 J#
b10 S#
b10 [#
b1000 <
b1000 Q#
b1000 Z#
b1000 h#
b1000 n#
b11 O
b11 N#
b11 Y#
b11 g#
b11 l#
b11 5
b11 L"
b11 _"
b11 C#
b11 R#
b11 &
b11 O"
b11 W#
b11 _#
b11 a"
b1100 =
b1100 H"
b1100 P#
b1100 ^"
b1000 P
b1000 ?"
b1000 A"
b1000 ["
b1000 $#
b1000 )#
b1000 M#
b1000 ^#
b10000 >
b10000 W
b10000 G"
b10000 w
b1100 @
b1100 V
b1100 v
b1100 F"
b1100 y"
b1100 }"
b100 6
b100 Z
b100 z
b100 K"
b100 B#
b10000001110 X"
b10000001110 {"
b10000000010 F
b10000000010 U
b10000000010 t
b10000000010 D"
b10000000010 p"
b10000000010 z"
b101 9
b101 X
b101 x
b101 I"
b101 ##
b1 Q
b1 R
b1 q
b1 >"
b1 b"
b10100 7#
b10000 6#
b1000001111001010110011 5#
b11000 /#
b11000 <#
b11000 >#
b10100 1#
b10100 9#
b10100 ?#
b10100 A#
1!
#70000
b11 d
b11 $"
0!
#75000
0g"
b11 f"
b1000 h"
0c"
b0 I
b0 V"
b0 *#
b0 K#
b11 Q"
b11 n"
b11 q"
b11 p
b11 /"
b11 0"
b11 5"
b11 u"
b11 P"
b11 r"
b11 v"
b11 +#
b1000001100001110110011 3#
b1000001100001110110011 8#
b100000111000110 <"
b110 )"
b110 1"
b1 Z"
b1 k"
b11100 .#
b11100 ;#
b11100 @#
b11000 ?
b11000 f
b11000 0#
b10100 A
b10100 g
b10100 2#
b1000001110001100110011 E
b1000001110001100110011 j
b1000001110001100110011 4#
1x"
b10010 :
b10010 U"
b10010 -#
b10010 :#
b10 d#
b1000 -
b1000 `
b1000 #"
b1000 T"
b1000 '#
b1000 ,#
b1000 k#
b1000 p#
b11100 /#
b11100 <#
b11100 >#
b11000 1#
b11000 9#
b11000 ?#
b11000 A#
b11000 7#
b10100 6#
b1000001110001100110011 5#
b111 H
b111 T
b111 B"
b111 s"
b111 s
b10100 >
b10100 W
b10100 G"
b10100 w
b10000 @
b10000 V
b10000 v
b10000 F"
b10000 y"
b10000 }"
b101 6
b101 Z
b101 z
b101 K"
b101 B#
b10010 X"
b10010 {"
b10 F
b10 U
b10 t
b10 D"
b10 p"
b10 z"
b11 8
b11 Y
b11 y
b11 J"
b11 (#
b10 Q
b10 R
b10 q
b10 >"
b10 b"
b100 5
b100 L"
b100 _"
b100 C#
b100 R#
b10000 =
b10000 H"
b10000 P#
b10000 ^"
b10 P
b10 ?"
b10 A"
b10 ["
b10 $#
b10 )#
b10 M#
b10 ^#
b11 7
b11 c
b11 &"
b11 J#
b11 S#
b11 [#
b1100 <
b1100 Q#
b1100 Z#
b1100 h#
b1100 n#
b1000 O
b1000 N#
b1000 Y#
b1000 g#
b1000 l#
1!
#80000
0!
#85000
b10 h"
b111 Z"
b111 k"
b100 p
b100 /"
b100 0"
b100 5"
b100000110000111 <"
b100 )"
b100 1"
b100010010010000110011 3#
b100010010010000110011 8#
b10 -
b10 `
b10 #"
b10 T"
b10 '#
b10 ,#
b10 k#
b10 p#
b1 d#
0x"
b10110 :
b10110 U"
b10110 -#
b10110 :#
b11100 ?
b11100 f
b11100 0#
b11000 A
b11000 g
b11000 2#
b1000001100001110110011 E
b1000001100001110110011 j
b1000001100001110110011 4#
b100000 .#
b100000 ;#
b100000 @#
b100 7
b100 c
b100 &"
b100 J#
b100 S#
b100 [#
b10000 <
b10000 Q#
b10000 Z#
b10000 h#
b10000 n#
b10 O
b10 N#
b10 Y#
b10 g#
b10 l#
b111 G
b111 C"
b111 \"
b111 O#
b111 a#
b101 5
b101 L"
b101 _"
b101 C#
b101 R#
b10100 =
b10100 H"
b10100 P#
b10100 ^"
b1 P
b1 ?"
b1 A"
b1 ["
b1 $#
b1 )#
b1 M#
b1 ^#
b110 H
b110 T
b110 B"
b110 s"
b110 s
b11000 >
b11000 W
b11000 G"
b11000 w
b10110 X"
b10110 {"
b10100 @
b10100 V
b10100 v
b10100 F"
b10100 y"
b10100 }"
b110 6
b110 Z
b110 z
b110 K"
b110 B#
b11 Q
b11 R
b11 q
b11 >"
b11 b"
b11100 7#
b11000 6#
b1000001100001110110011 5#
b100000 /#
b100000 <#
b100000 >#
b11100 1#
b11100 9#
b11100 ?#
b11100 A#
1!
#90000
0!
#95000
b101 d
b101 $"
b11 e
b11 %"
b1000 h"
b110 Z"
b110 k"
b1 k
b1 ="
b101 p
b101 /"
b101 0"
b101 5"
b100010011010010110011 3#
b100010011010010110011 8#
b1 *
b1 ^
b1 G#
b10 ,
b10 _
b10 E#
b10001001001000 <"
b1 ""
b10 !"
b10 )"
b10 1"
b100100 .#
b100100 ;#
b100100 @#
b100000 ?
b100000 f
b100000 0#
b11100 A
b11100 g
b11100 2#
b100010010010000110011 E
b100010010010000110011 j
b100010010010000110011 4#
b11010 :
b11010 U"
b11010 -#
b11010 :#
b111 d#
b1 -
b1 `
b1 #"
b1 T"
b1 '#
b1 ,#
b1 k#
b1 p#
b100100 /#
b100100 <#
b100100 >#
b100000 1#
b100000 9#
b100000 ?#
b100000 A#
b100000 7#
b11100 6#
b100010010010000110011 5#
b100 H
b100 T
b100 B"
b100 s"
b100 s
b11100 >
b11100 W
b11100 G"
b11100 w
b11010 X"
b11010 {"
b11000 @
b11000 V
b11000 v
b11000 F"
b11000 y"
b11000 }"
b111 6
b111 Z
b111 z
b111 K"
b111 B#
b100 Q
b100 R
b100 q
b100 >"
b100 b"
b110 G
b110 C"
b110 \"
b110 O#
b110 a#
b110 5
b110 L"
b110 _"
b110 C#
b110 R#
b11000 =
b11000 H"
b11000 P#
b11000 ^"
b111 P
b111 ?"
b111 A"
b111 ["
b111 $#
b111 )#
b111 M#
b111 ^#
b101 7
b101 c
b101 &"
b101 J#
b101 S#
b101 [#
b10100 <
b10100 Q#
b10100 Z#
b10100 h#
b10100 n#
b1 O
b1 N#
b1 Y#
b1 g#
b1 l#
1!
#100000
0!
